<?xml version="1.0" encoding="utf-8"?>
<!-- Generator: Adobe Illustrator 22.0.1, SVG Export Plug-In . SVG Version: 6.00 Build 0)  -->
<svg version="1.1" id="Layer_1" xmlns="http://www.w3.org/2000/svg" xmlns:xlink="http://www.w3.org/1999/xlink" x="0px" y="0px"
	 width="102px" height="32.8px" viewBox="0 0 102 32.8" style="enable-background:new 0 0 102 32.8;" xml:space="preserve">
<style type="text/css">
	.st0{fill:url(#SVGID_1_);}
</style>
<linearGradient id="SVGID_1_" gradientUnits="userSpaceOnUse" x1="1.5791" y1="16.3693" x2="100.3015" y2="16.3693">
	<stop  offset="0" style="stop-color:#0083BA"/>
	<stop  offset="0.3523" style="stop-color:#0586BB"/>
	<stop  offset="0.4191" style="stop-color:#1B92C0"/>
	<stop  offset="0.5644" style="stop-color:#45AACB"/>
	<stop  offset="0.6958" style="stop-color:#64BBD3"/>
	<stop  offset="0.8074" style="stop-color:#76C5D7"/>
	<stop  offset="0.8859" style="stop-color:#7DC9D9"/>
</linearGradient>
<path class="st0" d="M3.8,20.1L5.4,5H3l0.4-4.1h10.2c5.1,0,7.8,2.8,7.8,7.1c0,5.6-4.4,8.4-9.1,8.4H8.8l-0.4,3.7h3.4l-0.4,4.1H1
	l0.4-4.1H3.8z M16.4,8.2c0-2.1-0.9-3.2-3.8-3.2H10l-0.8,7.3h2.6C15.3,12.3,16.4,10.5,16.4,8.2z M28.1,8.1l0.3,4.4
	c0.7-2.3,2-4.8,3.9-4.8c0.8,0,1.3,0.2,1.8,0.6l-0.7,4.8c-0.8-0.4-1.3-0.5-1.9-0.5c-1.5,0-2.6,0.8-3,2.5l-0.8,5.6h3.1l-0.4,3.5h-1
	h-8.6l0.4-3.5l1,0h1.1l1.1-9.1h-2.2l0.4-3.5l1,0H28.1z M42.6,7.7c4.9,0,7.1,3.1,7.1,7.5c0,5.6-3.6,9.3-8.9,9.3c-4.4,0-7-2.6-7-7.3
	C33.8,12.3,36.6,7.7,42.6,7.7z M41.3,21c2.7,0,3.7-2.6,3.7-5.7c0-2.9-0.9-4.1-2.8-4.1c-2.4,0-3.5,1.8-3.5,5.6
	C38.7,19.4,39.2,21,41.3,21z M57.5,11.3c1-2,2.6-3.6,5.1-3.6c3.9,0,5.7,3.2,5.7,6.8c0,4.6-2.4,10-7.8,10c-2.1,0-3.5-0.9-4.2-2.3
	l-0.8,6.1h3.1l-0.4,3.5h-1h-8.6l0.4-3.5h1h1.1l2.1-16.7H51l0.4-3.5h1h5L57.5,11.3z M63.5,15.1c0-2.1-0.7-3.9-2.5-3.9
	c-2.2,0-3.4,2.2-3.9,4.4l-0.2,1.8c0,2.2,1.1,3.6,3.1,3.6C62.2,21,63.5,17.9,63.5,15.1z M75.7,8.1l0.3,4.4c0.7-2.3,2-4.8,3.9-4.8
	c0.8,0,1.3,0.2,1.8,0.6l-0.7,4.8c-0.8-0.4-1.3-0.5-1.9-0.5c-1.5,0-2.6,0.8-3,2.5l-0.8,5.6h3.1l-0.4,3.5h-1h-8.6l0.4-3.5h1h1.1
	l1.1-9.1h-2.2l0.4-3.5h1H75.7z M92.1,18.4l3.6,0.7c-0.5,2.8-3.1,5.4-7.4,5.4c-3.8,0-6.9-2.1-6.9-7.2c0-5.1,3.2-9.6,8.7-9.6
	c3.4,0,5.9,1.8,5.9,4.4c0,2.4-1.4,4.1-5.8,5c-1.1,0.3-2.5,0.5-4,0.6c0.1,2.1,0.9,3.3,2.8,3.3C91.5,21,91.9,19.2,92.1,18.4z
	 M91.4,12.5c0-1.2-0.9-1.6-1.8-1.6c-2,0-2.9,2.1-3.2,4.3C87,15,87.5,15,88,14.9C90.8,14.3,91.4,13.4,91.4,12.5z M98.8,9.6
	c-1,0-1.8-0.8-1.8-1.8c0-1.2,1-2.2,2.2-2.2c1,0,1.8,0.8,1.8,1.8C101,8.6,99.9,9.6,98.8,9.6z M99.1,6c-1,0-1.7,0.8-1.7,1.8
	c0,0.8,0.6,1.5,1.4,1.5c0.9,0,1.7-0.7,1.7-1.7C100.5,6.6,100,6,99.1,6z M98.8,8.7c-0.7,0-1-0.4-1-1c0-0.7,0.5-1.3,1.3-1.3
	c0.4,0,0.7,0.2,0.8,0.3v0.5l-0.4,0l0-0.3c-0.1-0.1-0.3-0.2-0.4-0.2c-0.4,0-0.7,0.3-0.7,0.8c0,0.5,0.2,0.6,0.6,0.6
	c0.2,0,0.3,0,0.4-0.1l0.1-0.3l0.4,0l-0.1,0.5C99.6,8.6,99.2,8.7,98.8,8.7z"/>
</svg>
